Joining tables using dplyr: case study
…
Another frequent issue is missing data. In these tabes missingness is coded as “?” which is not the missingness symbol in R. Hence with a small additional manipulation:

userprofile <- userprofile %>% na_if("?")

Now we are ready to combine all the tables and use them to answer questions.

Which restaurant has got the best reviews?

rating_final %>% 
  group_by(placeID) %>% 
  count(rating) %>% mutate(prop = prop.table(n))

## # A tibble: 348 x 4
## # Groups:   placeID [130]
##    placeID rating     n  prop
##      <chr>  <int> <int> <dbl>
##  1  132560      0     2  0.50
##  2  132560      1     2  0.50
##  3  132561      0     1  0.25
##  4  132561      1     3  0.75
##  5  132564      1     3  0.75
##  6  132564      2     1  0.25
##  7  132572      0     3  0.20
##  8  132572      1     9  0.60
##  9  132572      2     3  0.20
## 10  132583      0     1  0.25
## # ... with 338 more rows

Which restaurant has got the best reviews in terms of average rating?

rating_final %>% 
  group_by(placeID) %>%
  summarise_at(vars(rating, food_rating, service_rating), 
               funs(mean, n())) %>%
  arrange(desc(rating_n), desc(rating_mean), desc(food_rating_mean), desc(service_rating_mean)) %>%
  left_join(chefmozcuisine) 

## Joining, by = "placeID"

## # A tibble: 147 x 8
##    placeID rating_mean food_rating_mean service_rating_mean rating_n
##      <chr>       <dbl>            <dbl>               <dbl>    <int>
##  1  135085    1.333333         1.472222           1.1666667       36
##  2  132825    1.281250         1.343750           0.9375000       32
##  3  135032    1.178571         1.071429           1.0714286       28
##  4  135032    1.178571         1.071429           1.0714286       28
##  5  135052    1.280000         1.160000           1.1600000       25
##  6  135052    1.280000         1.160000           1.1600000       25
##  7  132834    1.000000         1.120000           0.8800000       25
##  8  135038    1.208333         1.166667           0.9583333       24
##  9  135060    1.136364         1.045455           1.2727273       22
## 10  135062    1.238095         1.238095           1.0952381       21
## # ... with 137 more rows, and 3 more variables: food_rating_n <int>,
## #   service_rating_n <int>, Rcuisine <chr>
…
userprofile%>% 
  filter(smoker == "true") %>%
  left_join(rating_final) %>%
  group_by(placeID) %>%
  summarise_at(vars(rating_mean = rating, food_rating_mean = food_rating, 
                    service_rating_mean = service_rating), 
               funs(mean, n())) %>%
  arrange(desc(rating_mean), desc(food_rating_mean), desc(service_rating_mean)) %>%
  left_join(chefmozcuisine) 

## Joining, by = "userID"

## Joining, by = "placeID"

## # A tibble: 120 x 8
##    placeID rating_mean food_rating_mean service_rating_mean rating_n
##      <chr>       <dbl>            <dbl>               <dbl>    <int>
##  1  132660           2                2                   2        1
##  2  132755           2                2                   2        1
##  3  132767           2                2                   2        1
##  4  132830           2                2                   2        1
##  5  132884           2                2                   2        1
##  6  132958           2                2                   2        1
##  7  134986           2                2                   2        2
##  8  134999           2                2                   2        1
##  9  135000           2                2                   2        1
## 10  135019           2                2                   2        1
## # ... with 110 more rows, and 3 more variables: food_rating_n <int>,
## #   service_rating_n <int>, Rcuisine <chr>
…
userprofile %>% 
  filter(budget == "low") %>%
  left_join(rating_final) %>%
  group_by(placeID) %>%
  summarise_at(vars(rating_mean = rating, food_rating_mean = food_rating, 
                    service_rating_mean = service_rating), 
               funs(mean, n())) %>%
  arrange(desc(rating_mean), desc(food_rating_mean), desc(service_rating_mean)) %>%
  left_join(chefmozcuisine) 

## Joining, by = "userID"

## Joining, by = "placeID"

## # A tibble: 120 x 8
##    placeID rating_mean food_rating_mean service_rating_mean rating_n
##      <chr>       <dbl>            <dbl>               <dbl>    <int>
##  1  132884           2             2.00                 2.0        2
##  2  132958           2             2.00                 2.0        1
##  3  134975           2             2.00                 2.0        1
##  4  134996           2             2.00                 2.0        1
##  5  135049           2             2.00                 2.0        1
##  6  135055           2             2.00                 2.0        2
##  7  132608           2             2.00                 1.5        2
##  8  132723           2             2.00                 1.5        2
##  9  132755           2             2.00                 1.5        2
## 10  135075           2             1.75                 1.5        4
## # ... with 110 more rows, and 3 more variables: food_rating_n <int>,
## #   service_rating_n <int>, Rcuisine <chr>
